"0","FR <- df %>%"
"0","  dplyr::filter(Country == 'FRANCE') %>%"
"0","  group_by(End.use, year) %>%"
"0","  summarise(total_cost = sum(value))"
"0",""
"0","ggplotly(ggplot2::ggplot(FR, aes(x = factor(year), y = total_cost, fill = factor(End.use))) +"
"0","  geom_bar(stat = ""identity"", position = ""dodge2"") +"
"0","  scale_fill_manual(values = c(""#26294D"", ""#2BA78B"", ""#C3747C"", ""#F59B3F"", ""#68C6E2"")) +"
"0","  labs(x = ""Year"", "
"0","       y = ""Summed Value"","
"0","       title = ""France"","
"0","       subtitle = ""Summed Value versus Year"","
"0","       fill = ""End Use"") +"
"0","  ggthemes::theme_tufte())"
