"0","BE <- df %>%"
"0","  dplyr::filter(Country == 'BELGIUM') %>%"
"0","  group_by(End.use, year) %>%"
"0","  summarise(total_cost = sum(value))"
"0",""
"0","ggplot(data = BE, aes(x = year, y = total_cost, group = End.use)) +"
"0","  geom_line(aes(color = End.use, alpha = 1), size = 2) +"
"0","  geom_point(aes(color = End.use, alpha = 1), size = 4) +"
"0","  labs("
"0","    x = ""Year"","
"0","    y = ""Summed Value"","
"0","    title = ""Belgium"","
"0","    subtitle = ""Summed Value versus Year"","
"0","    fill = ""End Use"""
"0","  ) +"
"0","  ggthemes::theme_tufte()"
